src/dump.vcd
$date
	Tue Jan 27 12:12:23 2026
$end
$version
	QuestaSim Version 10.6c
$end
$timescale
	1ns
$end

$scope module uvm_root $end
$upscope $end

$scope module tb $end
$upscope $end

$scope begin uvm_pkg $end
$var parameter 32 ! UVM_HDL_MAX_WIDTH $end
$var parameter 32 " UVM_STREAMBITS $end
$var parameter 32 # UVM_RADIX $end
$var parameter 32 $ UVM_MACRO_NUMFLAGS $end
$var parameter 32 % UVM_DEFAULT $end
$var parameter 32 & UVM_ALL_ON $end
$var parameter 32 ' UVM_FLAGS_ON $end
$var parameter 32 ( UVM_FLAGS_OFF $end
$var parameter 32 ) UVM_COPY $end
$var parameter 32 * UVM_NOCOPY $end
$var parameter 32 + UVM_COMPARE $end
$var parameter 32 , UVM_NOCOMPARE $end
$var parameter 32 - UVM_PRINT $end
$var parameter 32 . UVM_NOPRINT $end
$var parameter 32 / UVM_RECORD $end
$var parameter 32 0 UVM_NORECORD $end
$var parameter 32 1 UVM_PACK $end
$var parameter 32 2 UVM_NOPACK $end
$var parameter 32 3 UVM_PHYSICAL $end
$var parameter 32 4 UVM_ABSTRACT $end
$var parameter 32 5 UVM_READONLY $end
$var parameter 32 6 UVM_NODEFPRINT $end
$var parameter 32 7 UVM_MACRO_EXTRAS $end
$var parameter 32 8 UVM_FLAGS $end
$var parameter 32 9 UVM_UNPACK $end
$var parameter 32 : UVM_CHECK_FIELDS $end
$var parameter 32 ; UVM_END_DATA_EXTRA $end
$var parameter 32 < UVM_START_FUNCS $end
$var parameter 32 = UVM_SET $end
$var parameter 32 > UVM_SETINT $end
$var parameter 32 ? UVM_SETOBJ $end
$var parameter 32 @ UVM_SETSTR $end
$var parameter 32 A UVM_END_FUNCS $end
$var parameter 32 B UVM_STR_CRC_POLYNOMIAL $end
$var parameter 32 C UVM_STDOUT $end
$var parameter 32 D UVM_LINE_WIDTH $end
$var parameter 32 E UVM_NUM_LINES $end
$var parameter 32 F UVM_SMALL_STRING $end
$var parameter 32 G UVM_LARGE_STRING $end
$var reg 1 H uvm_start_uvm_declarations $end
$var integer 32 I uvm_global_random_seed $end
$var integer 32 J UVM_UNBOUNDED_CONNECTIONS $end

$scope function uvm_hdl_check_path $end
$var integer 32 K uvm_hdl_check_path $end
$upscope $end

$scope function uvm_hdl_deposit $end
$var integer 32 L uvm_hdl_deposit $end
$var reg 1024 M value [1023:0] $end
$upscope $end

$scope function uvm_hdl_force $end
$var integer 32 N uvm_hdl_force $end
$var reg 1024 O value [1023:0] $end
$upscope $end

$scope task uvm_hdl_force_time $end
$var reg 1024 P value [1023:0] $end
$var time 64 Q force_time $end
$upscope $end

$scope function uvm_hdl_release_and_read $end
$var integer 32 R uvm_hdl_release_and_read $end
$var reg 1024 S value [1023:0] $end
$upscope $end

$scope function uvm_hdl_release $end
$var integer 32 T uvm_hdl_release $end
$upscope $end

$scope function uvm_hdl_read $end
$var integer 32 U uvm_hdl_read $end
$var reg 1024 V value [1023:0] $end
$upscope $end

$scope function uvm_dpi_get_next_arg_c $end
$upscope $end

$scope function uvm_dpi_get_tool_name_c $end
$upscope $end

$scope function uvm_dpi_get_tool_version_c $end
$upscope $end

$scope function uvm_dpi_get_next_arg $end
$upscope $end

$scope function uvm_dpi_get_tool_name $end
$upscope $end

$scope function uvm_dpi_get_tool_version $end
$upscope $end

$scope function uvm_dpi_regcomp $end
$upscope $end

$scope function uvm_dpi_regexec $end
$var integer 32 W uvm_dpi_regexec $end
$upscope $end

$scope function uvm_dpi_regfree $end
$upscope $end

$scope function uvm_re_match $end
$var integer 32 X uvm_re_match $end
$upscope $end

$scope function uvm_dump_re_cache $end
$upscope $end

$scope function uvm_glob_to_re $end
$upscope $end

$scope function uvm_revision_string $end
$upscope $end

$scope function uvm_radix_to_string $end
$var integer 32 Y radix $end
$upscope $end

$scope function uvm_instance_scope $end
$var reg 8 Z c [7:0] $end
$var integer 32 [ pos $end
$upscope $end

$scope function uvm_oneway_hash $end
$var integer 32 \ uvm_oneway_hash $end
$var integer 32 ] seed $end
$var reg 1 ^ msb $end
$var reg 8 _ current_byte [7:0] $end
$var reg 32 ` crc1 [31:0] $end
$upscope $end

$scope function uvm_create_random_seed $end
$var integer 32 a uvm_create_random_seed $end
$upscope $end

$scope function uvm_object_value_str $end
$upscope $end

$scope function uvm_leaf_scope $end
$var reg 8 b scope_separator [7:0] $end
$var reg 8 c bracket_match [7:0] $end
$var integer 32 d pos $end
$var integer 32 e bmatches $end
$upscope $end

$scope function uvm_vector_to_string $end
$var reg 4096 f value [4095:0] $end
$var integer 32 g size $end
$var integer 32 h radix $end
$upscope $end

$scope function uvm_get_array_index_int $end
$var integer 32 i uvm_get_array_index_int $end
$var reg 1 j is_wildcard $end
$var integer 32 k i $end
$upscope $end

$scope function uvm_get_array_index_string $end
$var reg 1 l is_wildcard $end
$var integer 32 m i $end
$upscope $end

$scope function uvm_is_array $end
$var reg 1 n uvm_is_array $end
$upscope $end

$scope function uvm_has_wildcard $end
$upscope $end

$scope task run_test $end
$upscope $end

$scope function global_stop_request $end
$upscope $end

$scope function set_global_timeout $end
$var time 64 o timeout $end
$var reg 1 p overridable $end
$upscope $end

$scope function set_global_stop_timeout $end
$var time 64 q timeout $end
$upscope $end

$scope function uvm_report_enabled $end
$var reg 1 r uvm_report_enabled $end
$var integer 32 s verbosity $end
$var reg 2 t severity [1:0] $end
$upscope $end

$scope function uvm_report $end
$var reg 2 u severity [1:0] $end
$var integer 32 v verbosity $end
$var integer 32 w line $end
$upscope $end

$scope function uvm_report_info $end
$var integer 32 x verbosity $end
$var integer 32 y line $end
$upscope $end

$scope function uvm_report_warning $end
$var integer 32 z verbosity $end
$var integer 32 { line $end
$upscope $end

$scope function uvm_report_error $end
$var integer 32 | verbosity $end
$var integer 32 } line $end
$upscope $end

$scope function uvm_report_fatal $end
$var integer 32 ~ verbosity $end
$var integer 32 !! line $end
$upscope $end

$scope function uvm_string_to_severity $end
$var reg 1 "! uvm_string_to_severity $end
$var reg 2 #! sev [1:0] $end
$upscope $end

$scope function uvm_string_to_action $end
$upscope $end

$scope function set_config_int $end
$var reg 4096 $! value [4095:0] $end
$upscope $end

$scope function set_config_object $end
$var reg 1 %! clone $end
$upscope $end

$scope function set_config_string $end
$upscope $end

$scope function uvm_is_match $end
$var reg 1 &! uvm_is_match $end
$upscope $end

$scope function uvm_string_to_bits $end
$var reg 115200 '! uvm_string_to_bits [115199:0] $end
$upscope $end

$scope function uvm_bits_to_string $end
$var reg 115200 (! str [115199:0] $end
$upscope $end

$scope task uvm_wait_for_nba_region $end
$var integer 32 )! nba $end
$var integer 32 *! next_nba $end
$upscope $end

$scope function uvm_split_string $end
$upscope $end

$scope function uvm_hdl_concat2string $end
$upscope $end
$upscope $end

$scope begin dma_pkg $end
$upscope $end

$scope begin top_sv_unit $end
$upscope $end

$scope begin std $end
$upscope $end

$scope begin questa_uvm_pkg $end
$upscope $end
$enddefinitions $end
#0
$dumpvars
0l
0n
0"!
b0 #!
bx '!
bx (!
bx M
bx O
bx P
bx S
bx V
1H
1^
b1110011 _
b10000110000100111110011001100001 `
bx f
0j
0p
0r
b0 t
b0 u
bx $!
0%!
0&!
b10000000000 !
b1000000000000 "
b1111000000000000000000000000 #
b10001 $
b10101010101 %
b101010101 &
b101010101 '
b0 (
b1 )
b10 *
b100 +
b1000 ,
b10000 -
b100000 .
b1000000 /
b10000000 0
b100000000 1
b1000000000 2
b10000000000000 3
b100000000000000 4
b1000000000000000 5
b10000000000000000 6
b100000000000000000 7
b100000000000000001 8
b100000000000000010 9
b100000000000000011 :
b100000000000000100 ;
b100000000000000101 <
b100000000000000110 =
b100000000000000110 >
b100000000000000111 ?
b100000000000001000 @
b100000000000001000 A
b100110000010001110110110110 B
b1 C
b1111000 D
b1111000 E
b1110111111 F
b11100000111111111 G
b0 Y
b0 b
b0 c
b0 d
b0 e
b0 m
b0 K
b0 L
b0 N
b0 R
b0 T
b0 U
b1 W
b0 X
b1101001011000001111100000011110 I
b101110 Z
b111 [
b111011110101110010010010111 \
b1101001011000001111100000011110 ]
b11011101011001011001110001001 a
b0 g
b0 h
b0 i
b0 k
b111110100 s
b0 v
b0 w
b11001000 x
b11011001 y
b0 z
b0 {
b0 |
b0 }
b0 ~
b0 !!
b100011 )!
b100011 *!
b11111111111111111111111111111111 J
bx Q
bx o
bx q
$end
#5
b100100 *!
b100100 )!
#45
b100101 *!
b110010000 s
b100101100 s
b110010000 s
b111011110101110010010011000 a
b100101 )!
#85
b100110 *!
b100101100 s
b110010000 s
b111011110101110010010011010 a
b100110 )!
#125
b100111 *!
b100101100 s
b110010000 s
b111011110101110010010011101 a
b100111 )!
#165
b101000 *!
b100101100 s
b111110100 s
b100101100 s
b110010000 s
b111011110101110010010100001 a
b101000 )!
#205
b101001 *!
b100101100 s
b110010000 s
b111011110101110010010100110 a
b101001 )!
#245
b101010 *!
b100101100 s
b110010000 s
b111011110101110010010101100 a
b101010 )!
#285
b101011 *!
b100101100 s
b110010000 s
b111011110101110010010110011 a
b101011 )!
#325
b101100 *!
b100101100 s
b110010000 s
b111011110101110010010111011 a
b101100 )!
#365
b101101 *!
b100101100 s
b111110100 s
b100101100 s
b110010000 s
b111011110101110010011000100 a
b101101 )!
#405
b101110 *!
b100101100 s
b110010000 s
b111011110101110010011001110 a
b101110 )!
#445
b101111 *!
b100101100 s
b110010000 s
b111011110101110010011011001 a
b101111 )!
#485
b110000 *!
b100101100 s
b110010000 s
b111011110101110010011100101 a
b110000 )!
#525
b110001 *!
b100101100 s
b110010000 s
b111011110101110010011110010 a
b110001 )!
#565
b110010 *!
b100101100 s
b111110100 s
b100101100 s
b110010000 s
b111011110101110010100000000 a
b110010 )!
#605
b110011 *!
b100101100 s
b110010000 s
b111011110101110010100001111 a
b110011 )!
#645
b110100 *!
b100101100 s
b110010000 s
b111011110101110010100011111 a
b110100 )!
#685
b110101 *!
b100101100 s
b110010000 s
b111011110101110010100110000 a
b110101 )!
#725
b110110 *!
b100101100 s
b110010000 s
b111011110101110010101000010 a
b110110 )!
#765
b110111 *!
b100101100 s
b111110100 s
b100101100 s
b110010000 s
b111011110101110010101010101 a
b110111 )!
#805
b111000 *!
b100101100 s
b110010000 s
b111011110101110010101101001 a
b111000 )!
#845
b111001 *!
b100101100 s
b110010000 s
b111011110101110010101111110 a
b111001 )!
#885
b111010 *!
b100101100 s
b110010000 s
b111011110101110010110010100 a
b111010 )!
#925
b111011 *!
b100101100 s
b110010000 s
b111011110101110010110101011 a
b111011 )!
#965
b111100 *!
b100101100 s
b111110100 s
b100101100 s
b110010000 s
b111011110101110010111000011 a
b111100 )!
#1005
b111101 *!
b100101100 s
b110010000 s
b111011110101110010111011100 a
b111101 )!
#1045
b111110 *!
b100101100 s
b110010000 s
b111011110101110010111110110 a
b111110 )!
#1085
b111111 *!
b100101100 s
b110010000 s
b111011110101110011000010001 a
b111111 )!
#1125
b1000000 *!
b100101100 s
b110010000 s
b111011110101110011000101101 a
b1000000 )!
#1165
b1000001 *!
b100101100 s
b111110100 s
b100101100 s
b110010000 s
b111011110101110011001001010 a
b1000001 )!
#1205
b1000010 *!
b100101100 s
b110010000 s
b111011110101110011001101000 a
b1000010 )!
#1245
b1000011 *!
b100101100 s
b110010000 s
b111011110101110011010000111 a
b1000011 )!
#1285
b1000100 *!
b100101100 s
b110010000 s
b111011110101110011010100111 a
b1000100 )!
#1325
b1000101 *!
b100101100 s
b110010000 s
b111011110101110011011001000 a
b1000101 )!
#1365
b1000110 *!
b100101100 s
b111110100 s
b100101100 s
b110010000 s
b111011110101110011011101010 a
b1000110 )!
#1405
b1000111 *!
b100101100 s
b110010000 s
b111011110101110011100001101 a
b1000111 )!
#1445
b1001000 *!
b100101100 s
b110010000 s
b111011110101110011100110001 a
b1001000 )!
#1485
b1001001 *!
b100101100 s
b110010000 s
b111011110101110011101010110 a
b1001001 )!
#1525
b1001010 *!
b100101100 s
b110010000 s
b111011110101110011101111100 a
b1001010 )!
#1565
b1001011 *!
b100101100 s
b110010000 s
b111011110101110011110100011 a
b1001011 )!
#1605
b1001100 *!
b100101100 s
b110010000 s
b111011110101110011111001011 a
b1001100 )!
#1645
b1001101 *!
b100101100 s
b1001101 )!
#1845
b1001110 *!
b111110100 s
b1001111 *!
b1001110 )!
b1001111 )!
b1010000 *!
b1010001 *!
b1010000 )!
b1010001 )!
b11011101011001011001110011011 a
b1000011000000011001110110101000 a
b1100100110110000001010001110101 a
b100110111110111001001000000100 a
b10100110010111011110000011011000 a
b11001010011011010110011110001011 a
b10000001110000000101111111101101 a
b10001001001000011100010000010000 a
b101010101000101111011011111101 a
b110100111111001111111010100111 a
b10011111001011101100000111101000 a
b1010100010010000110011000101111 a
b10110010010001011001001110110010 a
b10110100010100011100101001111 a
b11111000110001000001101110001 a
b111101010001101101110111001100 a
b1011110101111111111110001000000 a
b10011011100000000010010101001100 a
b11101111001000101001001000010111 a
b1100100100010011011011100001011 a
b111001010001110010101010 a
b1001111101111100101110110000101 a
b10110100000110101110110000101 a
b1011110001011011001001010010101 a
b11100111010110000010111010001110 a
b10100010000010011100111101111010 a
b111000011000110011100110101111 a
b11011100000111001000010000111110 a
b11011101011001011001110101110 a
b1000011000000011001110110111011 a
b1100100110110000001010010001000 a
b100110111110111001001000010111 a
b10100110010111011110000011101011 a
b11001010011011010110011110011110 a
b10000001110000000110000000000000 a
b10001001001000011100010000100011 a
b101010101000101111011100010000 a
b110100111111001111111010111010 a
b10011111001011101100000111111011 a
b1010100010010000110011001000010 a
b10110010010001011001001111000101 a
b10110100010100011100101100010 a
b11111000110001000001110000100 a
b111101010001101101110111011111 a
b1011110101111111111110001010011 a
b10011011100000000010010101011111 a
b11101111001000101001001000101010 a
b1100100100010011011011100011110 a
b111001010001110010111101 a
b1001111101111100101110110011000 a
b10110100000110101110110011000 a
b1011110001011011001001010101000 a
b11100111010110000010111010100001 a
b10100010000010011100111110001101 a
b111000011000110011100111000010 a
b11011100000111001000010001010001 a
b11011101011001011001111000010 a
b1000011000000011001110111001111 a
b1100100110110000001010010011100 a
b100110111110111001001000101011 a
b10100110010111011110000011111111 a
b11001010011011010110011110110010 a
b10000001110000000110000000010100 a
b10001001001000011100010000110111 a
b101010101000101111011100100100 a
b110100111111001111111011001110 a
b10011111001011101100001000001111 a
b1010100010010000110011001010110 a
b10110010010001011001001111011001 a
b10110100010100011100101110110 a
b11111000110001000001110011000 a
b111101010001101101110111110011 a
b1011110101111111111110001100111 a
b10011011100000000010010101110011 a
b11101111001000101001001000111110 a
b1100100100010011011011100110010 a
b111001010001110011010001 a
b1001111101111100101110110101100 a
b10110100000110101110110101100 a
b1011110001011011001001010111100 a
b11100111010110000010111010110101 a
b10100010000010011100111110100001 a
b111000011000110011100111010110 a
b11011100000111001000010001100101 a
b11011100000111001000010001111010 a
b111000011000110011100111101011 a
b10100010000010011100111110110110 a
b1100100100010011011011101000111 a
b1100100110110000001010010110001 a
b11011101011001011001111010111 a
b1000011000000011001110111100100 a
b10100110010111011110000100010100 a
b100110111110111001001001000000 a
b11101111001000101001001001010011 a
b110100111111001111111011100011 a
b11001010011011010110011111000111 a
b10000001110000000110000000101001 a
b10001001001000011100010001001100 a
b101010101000101111011100111001 a
b10011111001011101100001000100100 a
b1010100010010000110011001101011 a
b10011011100000000010010110001000 a
b10110010010001011001001111101110 a
b10110100010100011100110001011 a
b11111000110001000001110101101 a
b111101010001101101111000001000 a
b1011110101111111111110001111100 a
b10110100000110101110111000001 a
b111001010001110011100110 a
b1001111101111100101110111000001 a
b11100111010110000010111011001010 a
b1011110001011011001001011010001 a
