src/dump.vcd
$date
	Tue Jan 27 12:35:53 2026
$end
$version
	QuestaSim Version 10.6c
$end
$timescale
	1ns
$end

$scope module uvm_root $end
$upscope $end

$scope module tb $end
$var reg 1 ! clk $end
$var reg 1 " rst_n $end

$scope module dut $end
$var parameter 32 # INTR_ADDR $end
$var parameter 32 $ CTRL_ADDR $end
$var parameter 32 % IO_ADDR_ADDR $end
$var parameter 32 & MEM_ADDR_ADDR $end
$var parameter 32 ' EXTRA_INFO_ADDR $end
$var parameter 32 ( STATUS_ADDR $end
$var parameter 32 ) TRANSFER_COUNT_ADDR $end
$var parameter 32 * DESCRIPTOR_ADDR $end
$var parameter 32 + ERROR_STATUS_ADDR $end
$var parameter 32 , CONFIG_ADDR $end
$var wire 1 - clk $end
$var wire 1 . rst_n $end
$var wire 1 / wr_en $end
$var wire 1 0 rd_en $end
$var wire 1 1 wdata [31] $end
$var wire 1 2 wdata [30] $end
$var wire 1 3 wdata [29] $end
$var wire 1 4 wdata [28] $end
$var wire 1 5 wdata [27] $end
$var wire 1 6 wdata [26] $end
$var wire 1 7 wdata [25] $end
$var wire 1 8 wdata [24] $end
$var wire 1 9 wdata [23] $end
$var wire 1 : wdata [22] $end
$var wire 1 ; wdata [21] $end
$var wire 1 < wdata [20] $end
$var wire 1 = wdata [19] $end
$var wire 1 > wdata [18] $end
$var wire 1 ? wdata [17] $end
$var wire 1 @ wdata [16] $end
$var wire 1 A wdata [15] $end
$var wire 1 B wdata [14] $end
$var wire 1 C wdata [13] $end
$var wire 1 D wdata [12] $end
$var wire 1 E wdata [11] $end
$var wire 1 F wdata [10] $end
$var wire 1 G wdata [9] $end
$var wire 1 H wdata [8] $end
$var wire 1 I wdata [7] $end
$var wire 1 J wdata [6] $end
$var wire 1 K wdata [5] $end
$var wire 1 L wdata [4] $end
$var wire 1 M wdata [3] $end
$var wire 1 N wdata [2] $end
$var wire 1 O wdata [1] $end
$var wire 1 P wdata [0] $end
$var wire 1 Q addr [31] $end
$var wire 1 R addr [30] $end
$var wire 1 S addr [29] $end
$var wire 1 T addr [28] $end
$var wire 1 U addr [27] $end
$var wire 1 V addr [26] $end
$var wire 1 W addr [25] $end
$var wire 1 X addr [24] $end
$var wire 1 Y addr [23] $end
$var wire 1 Z addr [22] $end
$var wire 1 [ addr [21] $end
$var wire 1 \ addr [20] $end
$var wire 1 ] addr [19] $end
$var wire 1 ^ addr [18] $end
$var wire 1 _ addr [17] $end
$var wire 1 ` addr [16] $end
$var wire 1 a addr [15] $end
$var wire 1 b addr [14] $end
$var wire 1 c addr [13] $end
$var wire 1 d addr [12] $end
$var wire 1 e addr [11] $end
$var wire 1 f addr [10] $end
$var wire 1 g addr [9] $end
$var wire 1 h addr [8] $end
$var wire 1 i addr [7] $end
$var wire 1 j addr [6] $end
$var wire 1 k addr [5] $end
$var wire 1 l addr [4] $end
$var wire 1 m addr [3] $end
$var wire 1 n addr [2] $end
$var wire 1 o addr [1] $end
$var wire 1 p addr [0] $end
$var reg 32 q rdata [31:0] $end
$var reg 16 r intr_status [15:0] $end
$var reg 16 s intr_mask [15:0] $end
$var reg 1 t ctrl_start_dma $end
$var reg 15 u ctrl_w_count [14:0] $end
$var reg 1 v ctrl_io_mem $end
$var reg 32 w io_addr [31:0] $end
$var reg 32 x mem_addr [31:0] $end
$var reg 32 y extra_info [31:0] $end
$var reg 1 z status_busy $end
$var reg 1 { status_done $end
$var reg 1 | status_error $end
$var reg 1 } status_paused $end
$var reg 4 ~ status_current_state [3:0] $end
$var reg 8 !! status_fifo_level [7:0] $end
$var reg 32 "! transfer_count [31:0] $end
$var reg 32 #! descriptor_addr [31:0] $end
$var reg 1 $! error_bus $end
$var reg 1 %! error_timeout $end
$var reg 1 &! error_alignment $end
$var reg 1 '! error_overflow $end
$var reg 1 (! error_underflow $end
$var reg 8 )! error_code [7:0] $end
$var reg 16 *! error_addr_offset [15:0] $end
$var reg 2 +! config_priority [1:0] $end
$var reg 1 ,! config_auto_restart $end
$var reg 1 -! config_interrupt_enable $end
$var reg 2 .! config_burst_size [1:0] $end
$var reg 2 /! config_data_width [1:0] $end
$var reg 1 0! config_descriptor_mode $end
$upscope $end
$upscope $end

$scope begin uvm_pkg $end
$var parameter 32 1! UVM_HDL_MAX_WIDTH $end
$var parameter 32 2! UVM_STREAMBITS $end
$var parameter 32 3! UVM_RADIX $end
$var parameter 32 4! UVM_MACRO_NUMFLAGS $end
$var parameter 32 5! UVM_DEFAULT $end
$var parameter 32 6! UVM_ALL_ON $end
$var parameter 32 7! UVM_FLAGS_ON $end
$var parameter 32 8! UVM_FLAGS_OFF $end
$var parameter 32 9! UVM_COPY $end
$var parameter 32 :! UVM_NOCOPY $end
$var parameter 32 ;! UVM_COMPARE $end
$var parameter 32 <! UVM_NOCOMPARE $end
$var parameter 32 =! UVM_PRINT $end
$var parameter 32 >! UVM_NOPRINT $end
$var parameter 32 ?! UVM_RECORD $end
$var parameter 32 @! UVM_NORECORD $end
$var parameter 32 A! UVM_PACK $end
$var parameter 32 B! UVM_NOPACK $end
$var parameter 32 C! UVM_PHYSICAL $end
$var parameter 32 D! UVM_ABSTRACT $end
$var parameter 32 E! UVM_READONLY $end
$var parameter 32 F! UVM_NODEFPRINT $end
$var parameter 32 G! UVM_MACRO_EXTRAS $end
$var parameter 32 H! UVM_FLAGS $end
$var parameter 32 I! UVM_UNPACK $end
$var parameter 32 J! UVM_CHECK_FIELDS $end
$var parameter 32 K! UVM_END_DATA_EXTRA $end
$var parameter 32 L! UVM_START_FUNCS $end
$var parameter 32 M! UVM_SET $end
$var parameter 32 N! UVM_SETINT $end
$var parameter 32 O! UVM_SETOBJ $end
$var parameter 32 P! UVM_SETSTR $end
$var parameter 32 Q! UVM_END_FUNCS $end
$var parameter 32 R! UVM_STR_CRC_POLYNOMIAL $end
$var parameter 32 S! UVM_STDOUT $end
$var parameter 32 T! UVM_LINE_WIDTH $end
$var parameter 32 U! UVM_NUM_LINES $end
$var parameter 32 V! UVM_SMALL_STRING $end
$var parameter 32 W! UVM_LARGE_STRING $end
$var reg 1 X! uvm_start_uvm_declarations $end
$var integer 32 Y! uvm_global_random_seed $end
$var integer 32 Z! UVM_UNBOUNDED_CONNECTIONS $end

$scope function uvm_hdl_check_path $end
$var integer 32 [! uvm_hdl_check_path $end
$upscope $end

$scope function uvm_hdl_deposit $end
$var integer 32 \! uvm_hdl_deposit $end
$var reg 1024 ]! value [1023:0] $end
$upscope $end

$scope function uvm_hdl_force $end
$var integer 32 ^! uvm_hdl_force $end
$var reg 1024 _! value [1023:0] $end
$upscope $end

$scope task uvm_hdl_force_time $end
$var reg 1024 `! value [1023:0] $end
$var time 64 a! force_time $end
$upscope $end

$scope function uvm_hdl_release_and_read $end
$var integer 32 b! uvm_hdl_release_and_read $end
$var reg 1024 c! value [1023:0] $end
$upscope $end

$scope function uvm_hdl_release $end
$var integer 32 d! uvm_hdl_release $end
$upscope $end

$scope function uvm_hdl_read $end
$var integer 32 e! uvm_hdl_read $end
$var reg 1024 f! value [1023:0] $end
$upscope $end

$scope function uvm_dpi_get_next_arg_c $end
$upscope $end

$scope function uvm_dpi_get_tool_name_c $end
$upscope $end

$scope function uvm_dpi_get_tool_version_c $end
$upscope $end

$scope function uvm_dpi_get_next_arg $end
$upscope $end

$scope function uvm_dpi_get_tool_name $end
$upscope $end

$scope function uvm_dpi_get_tool_version $end
$upscope $end

$scope function uvm_dpi_regcomp $end
$upscope $end

$scope function uvm_dpi_regexec $end
$var integer 32 g! uvm_dpi_regexec $end
$upscope $end

$scope function uvm_dpi_regfree $end
$upscope $end

$scope function uvm_re_match $end
$var integer 32 h! uvm_re_match $end
$upscope $end

$scope function uvm_dump_re_cache $end
$upscope $end

$scope function uvm_glob_to_re $end
$upscope $end

$scope function uvm_revision_string $end
$upscope $end

$scope function uvm_radix_to_string $end
$var integer 32 i! radix $end
$upscope $end

$scope function uvm_instance_scope $end
$var reg 8 j! c [7:0] $end
$var integer 32 k! pos $end
$upscope $end

$scope function uvm_oneway_hash $end
$var integer 32 l! uvm_oneway_hash $end
$var integer 32 m! seed $end
$var reg 1 n! msb $end
$var reg 8 o! current_byte [7:0] $end
$var reg 32 p! crc1 [31:0] $end
$upscope $end

$scope function uvm_create_random_seed $end
$var integer 32 q! uvm_create_random_seed $end
$upscope $end

$scope function uvm_object_value_str $end
$upscope $end

$scope function uvm_leaf_scope $end
$var reg 8 r! scope_separator [7:0] $end
$var reg 8 s! bracket_match [7:0] $end
$var integer 32 t! pos $end
$var integer 32 u! bmatches $end
$upscope $end

$scope function uvm_vector_to_string $end
$var reg 4096 v! value [4095:0] $end
$var integer 32 w! size $end
$var integer 32 x! radix $end
$upscope $end

$scope function uvm_get_array_index_int $end
$var integer 32 y! uvm_get_array_index_int $end
$var reg 1 z! is_wildcard $end
$var integer 32 {! i $end
$upscope $end

$scope function uvm_get_array_index_string $end
$var reg 1 |! is_wildcard $end
$var integer 32 }! i $end
$upscope $end

$scope function uvm_is_array $end
$var reg 1 ~! uvm_is_array $end
$upscope $end

$scope function uvm_has_wildcard $end
$upscope $end

$scope task run_test $end
$upscope $end

$scope function global_stop_request $end
$upscope $end

$scope function set_global_timeout $end
$var time 64 !" timeout $end
$var reg 1 "" overridable $end
$upscope $end

$scope function set_global_stop_timeout $end
$var time 64 #" timeout $end
$upscope $end

$scope function uvm_report_enabled $end
$var reg 1 $" uvm_report_enabled $end
$var integer 32 %" verbosity $end
$var reg 2 &" severity [1:0] $end
$upscope $end

$scope function uvm_report $end
$var reg 2 '" severity [1:0] $end
$var integer 32 (" verbosity $end
$var integer 32 )" line $end
$upscope $end

$scope function uvm_report_info $end
$var integer 32 *" verbosity $end
$var integer 32 +" line $end
$upscope $end

$scope function uvm_report_warning $end
$var integer 32 ," verbosity $end
$var integer 32 -" line $end
$upscope $end

$scope function uvm_report_error $end
$var integer 32 ." verbosity $end
$var integer 32 /" line $end
$upscope $end

$scope function uvm_report_fatal $end
$var integer 32 0" verbosity $end
$var integer 32 1" line $end
$upscope $end

$scope function uvm_string_to_severity $end
$var reg 1 2" uvm_string_to_severity $end
$var reg 2 3" sev [1:0] $end
$upscope $end

$scope function uvm_string_to_action $end
$upscope $end

$scope function set_config_int $end
$var reg 4096 4" value [4095:0] $end
$upscope $end

$scope function set_config_object $end
$var reg 1 5" clone $end
$upscope $end

$scope function set_config_string $end
$upscope $end

$scope function uvm_is_match $end
$var reg 1 6" uvm_is_match $end
$upscope $end

$scope function uvm_string_to_bits $end
$var reg 115200 7" uvm_string_to_bits [115199:0] $end
$upscope $end

$scope function uvm_bits_to_string $end
$var reg 115200 8" str [115199:0] $end
$upscope $end

$scope task uvm_wait_for_nba_region $end
$var integer 32 9" nba $end
$var integer 32 :" next_nba $end
$upscope $end

$scope function uvm_split_string $end
$upscope $end

$scope function uvm_hdl_concat2string $end
$upscope $end
$upscope $end

$scope begin dma_pkg $end
$upscope $end

$scope begin top_sv_unit $end
$upscope $end

$scope begin std $end
$upscope $end

$scope begin questa_uvm_pkg $end
$upscope $end
$enddefinitions $end
#0
$dumpvars
0!
0"
b0 q
b0 r
b0 s
0t
b0 u
0v
b0 w
b0 x
b0 y
0z
0{
0|
0}
b0 ~
b0 !!
b0 "!
b0 #!
0$!
0%!
0&!
0'!
0(!
b0 )!
b0 *!
b0 +!
0,!
0-!
b0 .!
b0 /!
00!
0|!
0~!
02"
b0 3"
bx 7"
bx 8"
bx ]!
bx _!
bx `!
bx c!
bx f!
1X!
1n!
b1110011 o!
b10000110000100111110011001100001 p!
bx v!
0z!
0""
0$"
b0 &"
b0 '"
bx 4"
05"
06"
b10000000000 #
b10000000100 $
b10000001000 %
b10000001100 &
b10000010000 '
b10000010100 (
b10000011000 )
b10000011100 *
b10000100000 +
b10000100100 ,
b10000000000 1!
b1000000000000 2!
b1111000000000000000000000000 3!
b10001 4!
b10101010101 5!
b101010101 6!
b101010101 7!
b0 8!
b1 9!
b10 :!
b100 ;!
b1000 <!
b10000 =!
b100000 >!
b1000000 ?!
b10000000 @!
b100000000 A!
b1000000000 B!
b10000000000000 C!
b100000000000000 D!
b1000000000000000 E!
b10000000000000000 F!
b100000000000000000 G!
b100000000000000001 H!
b100000000000000010 I!
b100000000000000011 J!
b100000000000000100 K!
b100000000000000101 L!
b100000000000000110 M!
b100000000000000110 N!
b100000000000000111 O!
b100000000000001000 P!
b100000000000001000 Q!
b100110000010001110110110110 R!
b1 S!
b1111000 T!
b1111000 U!
b1110111111 V!
b11100000111111111 W!
b0 i!
b0 r!
b0 s!
b0 t!
b0 u!
b0 }!
b0 [!
b0 \!
b0 ^!
b0 b!
b0 d!
b0 e!
b1 g!
b0 h!
b1101001011000001111100000011110 Y!
b101110 j!
b111 k!
b111011110101110010010010111 l!
b1101001011000001111100000011110 m!
b11011101011001011001110001001 q!
b0 w!
b0 x!
b0 y!
b0 {!
b111110100 %"
b0 ("
b0 )"
b11001000 *"
b11011001 +"
b0 ,"
b0 -"
b0 ."
b0 /"
b0 0"
b0 1"
b100011 9"
b100011 :"
b11111111111111111111111111111111 Z!
bx a!
bx !"
bx #"
0.
0-
x/
x0
xP
xO
xN
xM
xL
xK
xJ
xI
xH
xG
xF
xE
xD
xC
xB
xA
x@
x?
x>
x=
x<
x;
x:
x9
x8
x7
x6
x5
x4
x3
x2
x1
xp
xo
xn
xm
xl
xk
xj
xi
xh
xg
xf
xe
xd
xc
xb
xa
x`
x_
x^
x]
x\
x[
xZ
xY
xX
xW
xV
xU
xT
xS
xR
xQ
$end
#5
1!
1"
1-
1.
b100100 :"
b100100 9"
#10
0!
0-
#15
1!
1-
1/
00
1P
1O
1N
1M
0L
1K
1J
1I
0H
1G
1F
1E
1D
1C
0B
1A
1@
0?
1>
1=
0<
1;
0:
19
08
17
16
15
14
03
12
11
0p
0o
1n
1m
0l
0k
0j
0i
0h
0g
1f
0e
0d
0c
0b
0a
0`
0_
0^
0]
0\
0[
0Z
0Y
0X
0W
0V
0U
0T
0S
0R
0Q
#20
0!
0-
#25
1!
1-
b11011110101011011011111011101111 x
#30
0!
0-
#35
1!
1-
#40
0!
0-
#45
1!
1-
b100101 :"
b110010000 %"
b100101100 %"
b110010000 %"
b111011110101110010010011000 q!
b100101 9"
#50
0!
0-
#55
1!
1-
0/
10
#60
0!
0-
#65
1!
1-
b11011110101011011011111011101111 q
#70
0!
0-
#75
1!
1-
#80
0!
0-
#85
1!
1-
b100110 :"
b100101100 %"
b110010000 %"
b111011110101110010010011010 q!
b100110 9"
#90
0!
0-
#95
1!
1-
#100
0!
0-
#105
1!
1-
#110
0!
0-
#115
1!
1-
#120
0!
0-
#125
1!
1-
b100111 :"
b100101100 %"
b110010000 %"
b111011110101110010010011101 q!
b100111 9"
#130
0!
0-
#135
1!
1-
#140
0!
0-
#145
1!
1-
#150
0!
0-
#155
1!
1-
#160
0!
0-
#165
1!
1-
b101000 :"
b100101100 %"
b111110100 %"
b100101100 %"
b110010000 %"
b111011110101110010010100001 q!
b101000 9"
#170
0!
0-
#175
1!
1-
#180
0!
0-
#185
1!
1-
#190
0!
0-
#195
1!
1-
#200
0!
0-
#205
1!
1-
b101001 :"
b100101100 %"
b110010000 %"
b111011110101110010010100110 q!
b101001 9"
#210
0!
0-
#215
1!
1-
1/
00
0P
0O
0N
0M
1L
0C
1B
0>
0=
0;
09
07
06
05
04
02
01
0m
#220
0!
0-
#225
1!
1-
b110111101111000 u
1v
#230
0!
0-
#235
1!
1-
#240
0!
0-
#245
1!
1-
b101010 :"
b100101100 %"
b110010000 %"
b111011110101110010010101100 q!
b101010 9"
#250
0!
0-
#255
1!
1-
0/
10
#260
0!
0-
#265
1!
1-
b11101111011110000 q
#270
0!
0-
#275
1!
1-
#280
0!
0-
#285
1!
1-
b101011 :"
b100101100 %"
b110010000 %"
b111011110101110010010110011 q!
b101011 9"
#290
0!
0-
#295
1!
1-
#300
0!
0-
#305
1!
1-
#310
0!
0-
#315
1!
1-
#320
0!
0-
#325
1!
1-
b101100 :"
b100101100 %"
b110010000 %"
b111011110101110010010111011 q!
b101100 9"
#330
0!
0-
#335
1!
1-
#340
0!
0-
#345
1!
1-
#350
0!
0-
#355
1!
1-
#360
0!
0-
#365
1!
1-
b101101 :"
b100101100 %"
b111110100 %"
b100101100 %"
b110010000 %"
b111011110101110010011000100 q!
b101101 9"
#370
0!
0-
#375
1!
1-
#380
0!
0-
#385
1!
1-
#390
0!
0-
#395
1!
1-
#400
0!
0-
#405
1!
1-
b101110 :"
b100101100 %"
b110010000 %"
b111011110101110010011001110 q!
b101110 9"
#410
0!
0-
#415
1!
1-
1/
00
1M
0I
0E
0A
0@
1>
1<
1;
17
14
0n
1m
#420
0!
0-
#425
1!
1-
b10010001101000101011001111000 w
#430
0!
0-
#435
1!
1-
#440
0!
0-
#445
1!
1-
b101111 :"
b100101100 %"
b110010000 %"
b111011110101110010011011001 q!
b101111 9"
#450
0!
0-
#455
1!
1-
0/
10
#460
0!
0-
#465
1!
1-
b10010001101000101011001111000 q
#470
0!
0-
#475
1!
1-
#480
0!
0-
#485
1!
1-
b110000 :"
b100101100 %"
b110010000 %"
b111011110101110010011100101 q!
b110000 9"
#490
0!
0-
#495
1!
1-
#500
0!
0-
#505
1!
1-
#510
0!
0-
#515
1!
1-
#520
0!
0-
#525
1!
1-
b110001 :"
b100101100 %"
b110010000 %"
b111011110101110010011110010 q!
b110001 9"
#530
0!
0-
#535
1!
1-
#540
0!
0-
#545
1!
1-
#550
0!
0-
#555
1!
1-
#560
0!
0-
#565
1!
1-
b110010 :"
b100101100 %"
b111110100 %"
b100101100 %"
b110010000 %"
b111011110101110010100000000 q!
b110010 9"
#570
0!
0-
#575
1!
1-
#580
0!
0-
#585
1!
1-
#590
0!
0-
#595
1!
1-
#600
0!
0-
#605
1!
1-
b110011 :"
b100101100 %"
b110010000 %"
b111011110101110010100001111 q!
b110011 9"
#610
0!
0-
#615
1!
1-
1/
00
0M
0L
0K
0J
1H
1E
0D
1C
1A
1@
1=
0<
0;
1:
19
18
15
04
13
11
0m
1l
#620
0!
0-
#625
1!
1-
b10101011110011011110111100000000 y
#630
0!
0-
#635
1!
1-
#640
0!
0-
#645
1!
1-
b110100 :"
b100101100 %"
b110010000 %"
b111011110101110010100011111 q!
b110100 9"
#650
0!
0-
#655
1!
1-
0/
10
#660
0!
0-
#665
1!
1-
b10101011110011011110111100000000 q
#670
0!
0-
#675
1!
1-
#680
0!
0-
#685
1!
1-
b110101 :"
b100101100 %"
b110010000 %"
b111011110101110010100110000 q!
b110101 9"
#690
0!
0-
#695
1!
1-
#700
0!
0-
#705
1!
1-
#710
0!
0-
#715
1!
1-
#720
0!
0-
#725
1!
1-
b110110 :"
b100101100 %"
b110010000 %"
b111011110101110010101000010 q!
b110110 9"
#730
0!
0-
#735
1!
1-
#740
0!
0-
#745
1!
1-
#750
0!
0-
#755
1!
1-
#760
0!
0-
#765
1!
1-
b110111 :"
b100101100 %"
b111110100 %"
b100101100 %"
b110010000 %"
b111011110101110010101010101 q!
b110111 9"
#770
0!
0-
#775
1!
1-
#780
0!
0-
#785
1!
1-
#790
0!
0-
#795
1!
1-
#800
0!
0-
#805
1!
1-
b111000 :"
b100101100 %"
b110010000 %"
b111011110101110010101101001 q!
b111000 9"
#810
0!
0-
#815
1!
1-
1/
00
1N
1J
0F
0E
1D
0B
0A
0@
1?
0>
0=
1;
0:
09
07
05
14
03
01
1n
1m
#820
0!
0-
#825
1!
1-
b10001001000100011001101000100 #!
#830
0!
0-
#835
1!
1-
#840
0!
0-
#845
1!
1-
b111001 :"
b100101100 %"
b110010000 %"
b111011110101110010101111110 q!
b111001 9"
#850
0!
0-
#855
1!
1-
0/
10
#860
0!
0-
#865
1!
1-
b10001001000100011001101000100 q
#870
0!
0-
#875
1!
1-
#880
0!
0-
#885
1!
1-
b111010 :"
b100101100 %"
b110010000 %"
b111011110101110010110010100 q!
b111010 9"
#890
0!
0-
#895
1!
1-
#900
0!
0-
#905
1!
1-
#910
0!
0-
#915
1!
1-
#920
0!
0-
#925
1!
1-
b111011 :"
b100101100 %"
b110010000 %"
b111011110101110010110101011 q!
b111011 9"
#930
0!
0-
#935
1!
1-
#940
0!
0-
#945
1!
1-
#950
0!
0-
#955
1!
1-
#960
0!
0-
#965
1!
1-
b111100 :"
b100101100 %"
b111110100 %"
b100101100 %"
b110010000 %"
b111011110101110010111000011 q!
b111100 9"
#970
0!
0-
#975
1!
1-
#980
0!
0-
#985
1!
1-
#990
0!
0-
#995
1!
1-
#1000
0!
0-
#1005
1!
1-
b111101 :"
b100101100 %"
b110010000 %"
b111011110101110010111011100 q!
b111101 9"
#1010
0!
0-
#1015
1!
1-
1/
00
1P
1L
0H
0G
0D
0C
0?
0;
08
04
0m
0l
1k
#1020
0!
0-
#1025
1!
1-
b1 +!
1,!
b1 .!
b1 /!
#1030
0!
0-
#1035
1!
1-
#1040
0!
0-
#1045
1!
1-
b111110 :"
b100101100 %"
b110010000 %"
b111011110101110010111110110 q!
b111110 9"
#1050
0!
0-
#1055
1!
1-
0/
10
#1060
0!
0-
#1065
1!
1-
b1010101 q
#1070
0!
0-
#1075
1!
1-
#1080
0!
0-
#1085
1!
1-
b111111 :"
b100101100 %"
b110010000 %"
b111011110101110011000010001 q!
b111111 9"
#1090
0!
0-
#1095
1!
1-
#1100
0!
0-
#1105
1!
1-
#1110
0!
0-
#1115
1!
1-
#1120
0!
0-
#1125
1!
1-
b1000000 :"
b100101100 %"
b110010000 %"
b111011110101110011000101101 q!
b1000000 9"
#1130
0!
0-
#1135
1!
1-
#1140
0!
0-
#1145
1!
1-
#1150
0!
0-
#1155
1!
1-
#1160
0!
0-
#1165
1!
1-
b1000001 :"
b100101100 %"
b111110100 %"
b100101100 %"
b110010000 %"
b111011110101110011001001010 q!
b1000001 9"
#1170
0!
0-
#1175
1!
1-
#1180
0!
0-
#1185
1!
1-
#1190
0!
0-
#1195
1!
1-
#1200
0!
0-
#1205
1!
1-
b1000010 :"
b100101100 %"
b110010000 %"
b111011110101110011001101000 q!
b1000010 9"
#1210
0!
0-
#1215
1!
1-
1/
00
0P
0N
0L
0J
1@
1>
1=
1;
19
17
16
15
14
12
11
0n
0k
#1220
0!
0-
#1225
1!
1-
b1101111010101101 s
#1230
0!
0-
#1235
1!
1-
#1240
0!
0-
#1245
1!
1-
b1000011 :"
b100101100 %"
b110010000 %"
b111011110101110011010000111 q!
b1000011 9"
#1250
0!
0-
#1255
1!
1-
0/
10
#1260
0!
0-
#1265
1!
1-
b11011110101011010000000000000000 q
#1270
0!
0-
#1275
1!
1-
#1280
0!
0-
#1285
1!
1-
b1000100 :"
b100101100 %"
b110010000 %"
b111011110101110011010100111 q!
b1000100 9"
#1290
0!
0-
#1295
1!
1-
#1300
0!
0-
#1305
1!
1-
#1310
0!
0-
#1315
1!
1-
#1320
0!
0-
#1325
1!
1-
b1000101 :"
b100101100 %"
b110010000 %"
b111011110101110011011001000 q!
b1000101 9"
#1330
0!
0-
#1335
1!
1-
#1340
0!
0-
#1345
1!
1-
#1350
0!
0-
#1355
1!
1-
#1360
0!
0-
#1365
1!
1-
b1000110 :"
b100101100 %"
b111110100 %"
b100101100 %"
b110010000 %"
b111011110101110011011101010 q!
b1000110 9"
#1370
0!
0-
#1375
1!
1-
#1380
0!
0-
#1385
1!
1-
#1390
0!
0-
#1395
1!
1-
#1400
0!
0-
#1405
1!
1-
b1000111 :"
b100101100 %"
b110010000 %"
b111011110101110011100001101 q!
b1000111 9"
#1410
0!
0-
#1415
1!
1-
1/
00
1P
1O
1N
1M
1L
1K
1J
1I
1H
1G
1F
1E
1D
1C
1B
1A
0@
0=
1<
09
06
05
04
02
01
1n
1l
#1420
0!
0-
#1425
1!
1-
#1430
0!
0-
#1435
1!
1-
#1440
0!
0-
#1445
1!
1-
b1001000 :"
b100101100 %"
b110010000 %"
b111011110101110011100110001 q!
b1001000 9"
#1450
0!
0-
#1455
1!
1-
0/
10
#1460
0!
0-
#1465
1!
1-
b0 q
#1470
0!
0-
#1475
1!
1-
#1480
0!
0-
#1485
1!
1-
b1001001 :"
b100101100 %"
b110010000 %"
b111011110101110011101010110 q!
b1001001 9"
#1490
0!
0-
#1495
1!
1-
1/
0n
0l
00
#1500
0!
0-
#1505
1!
1-
b1000110100 s
#1510
0!
0-
#1515
1!
1-
#1520
0!
0-
#1525
1!
1-
b1001010 :"
b100101100 %"
b110010000 %"
b111011110101110011101111100 q!
b1001010 9"
#1530
0!
0-
#1535
1!
1-
0/
10
#1540
0!
0-
#1545
1!
1-
b10001101000000000000000000 q
#1550
0!
0-
#1555
1!
1-
#1560
0!
0-
#1565
1!
1-
b1001011 :"
b100101100 %"
b110010000 %"
b111011110101110011110100011 q!
b1001011 9"
#1570
0!
0-
#1575
1!
1-
1/
1m
1l
00
#1580
0!
0-
#1585
1!
1-
#1590
0!
0-
#1595
1!
1-
#1600
0!
0-
#1605
1!
1-
b1001100 :"
b100101100 %"
b110010000 %"
b111011110101110011111001011 q!
b1001100 9"
#1610
0!
0-
#1615
1!
1-
0/
10
#1620
0!
0-
#1625
1!
1-
b0 q
#1630
0!
0-
#1635
1!
1-
#1640
0!
0-
#1645
1!
1-
b1001101 :"
b100101100 %"
b1001101 9"
#1650
0!
0-
#1655
1!
1-
#1660
0!
0-
#1665
1!
1-
#1670
0!
0-
#1675
1!
1-
#1680
0!
0-
#1685
1!
1-
#1690
0!
0-
#1695
1!
1-
#1700
0!
0-
#1705
1!
1-
#1710
0!
0-
#1715
1!
1-
#1720
0!
0-
#1725
1!
1-
#1730
0!
0-
#1735
1!
1-
#1740
0!
0-
#1745
1!
1-
#1750
0!
0-
#1755
1!
1-
#1760
0!
0-
#1765
1!
1-
#1770
0!
0-
#1775
1!
1-
#1780
0!
0-
#1785
1!
1-
#1790
0!
0-
#1795
1!
1-
#1800
0!
0-
#1805
1!
1-
#1810
0!
0-
#1815
1!
1-
#1820
0!
0-
#1825
1!
1-
#1830
0!
0-
#1835
1!
1-
#1840
0!
0-
#1845
1!
1-
b1001110 :"
b111110100 %"
b1001111 :"
b1001110 9"
b1001111 9"
b1010000 :"
b1010001 :"
b1010000 9"
b1010001 9"
b11011101011001011001110011011 q!
b1000011000000011001110110101000 q!
b1100100110110000001010001110101 q!
b100110111110111001001000000100 q!
b10100110010111011110000011011000 q!
b11001010011011010110011110001011 q!
b10000001110000000101111111101101 q!
b10001001001000011100010000010000 q!
b101010101000101111011011111101 q!
b110100111111001111111010100111 q!
b10011111001011101100000111101000 q!
b1010100010010000110011000101111 q!
b10110010010001011001001110110010 q!
b10110100010100011100101001111 q!
b11111000110001000001101110001 q!
b111101010001101101110111001100 q!
b1011110101111111111110001000000 q!
b10011011100000000010010101001100 q!
b11101111001000101001001000010111 q!
b1100100100010011011011100001011 q!
b111001010001110010101010 q!
b1001111101111100101110110000101 q!
b10110100000110101110110000101 q!
b1011110001011011001001010010101 q!
b11100111010110000010111010001110 q!
b10100010000010011100111101111010 q!
b111000011000110011100110101111 q!
b11011100000111001000010000111110 q!
b11011101011001011001110101110 q!
b1000011000000011001110110111011 q!
b1100100110110000001010010001000 q!
b100110111110111001001000010111 q!
b10100110010111011110000011101011 q!
b11001010011011010110011110011110 q!
b10000001110000000110000000000000 q!
b10001001001000011100010000100011 q!
b101010101000101111011100010000 q!
b110100111111001111111010111010 q!
b10011111001011101100000111111011 q!
b1010100010010000110011001000010 q!
b10110010010001011001001111000101 q!
b10110100010100011100101100010 q!
b11111000110001000001110000100 q!
b111101010001101101110111011111 q!
b1011110101111111111110001010011 q!
b10011011100000000010010101011111 q!
b11101111001000101001001000101010 q!
b1100100100010011011011100011110 q!
b111001010001110010111101 q!
b1001111101111100101110110011000 q!
b10110100000110101110110011000 q!
b1011110001011011001001010101000 q!
b11100111010110000010111010100001 q!
b10100010000010011100111110001101 q!
b111000011000110011100111000010 q!
b11011100000111001000010001010001 q!
b11011101011001011001111000010 q!
b1000011000000011001110111001111 q!
b1100100110110000001010010011100 q!
b100110111110111001001000101011 q!
b10100110010111011110000011111111 q!
b11001010011011010110011110110010 q!
b10000001110000000110000000010100 q!
b10001001001000011100010000110111 q!
b101010101000101111011100100100 q!
b110100111111001111111011001110 q!
b10011111001011101100001000001111 q!
b1010100010010000110011001010110 q!
b10110010010001011001001111011001 q!
b10110100010100011100101110110 q!
b11111000110001000001110011000 q!
b111101010001101101110111110011 q!
b1011110101111111111110001100111 q!
b10011011100000000010010101110011 q!
b11101111001000101001001000111110 q!
b1100100100010011011011100110010 q!
b111001010001110011010001 q!
b1001111101111100101110110101100 q!
b10110100000110101110110101100 q!
b1011110001011011001001010111100 q!
b11100111010110000010111010110101 q!
b10100010000010011100111110100001 q!
b111000011000110011100111010110 q!
b11011100000111001000010001100101 q!
b11011100000111001000010001111010 q!
b111000011000110011100111101011 q!
b10100010000010011100111110110110 q!
b1100100100010011011011101000111 q!
b1100100110110000001010010110001 q!
b11011101011001011001111010111 q!
b1000011000000011001110111100100 q!
b10100110010111011110000100010100 q!
b100110111110111001001001000000 q!
b11101111001000101001001001010011 q!
b110100111111001111111011100011 q!
b11001010011011010110011111000111 q!
b10000001110000000110000000101001 q!
b10001001001000011100010001001100 q!
b101010101000101111011100111001 q!
b10011111001011101100001000100100 q!
b1010100010010000110011001101011 q!
b10011011100000000010010110001000 q!
b10110010010001011001001111101110 q!
b10110100010100011100110001011 q!
b11111000110001000001110101101 q!
b111101010001101101111000001000 q!
b1011110101111111111110001111100 q!
b10110100000110101110111000001 q!
b111001010001110011100110 q!
b1001111101111100101110111000001 q!
b11100111010110000010111011001010 q!
b1011110001011011001001011010001 q!
