src/simulation.log
# vsim "+define+UVM_REG_NO_INDIVIDUAL_FIELD_ACCESS" -vopt work.tb -voptargs="+acc=npr" -assertdebug -l simulation.log -coverage -c -do "coverage save -onexit -assert -directive -cvg -codeAll dma_coverage.ucdb; run -all; exit" "+UVM_TESTNAME=transfer_count_test" "+UVM_VERBOSITY=UVM_MEDIUM" 
# Start time: 15:32:33 on Feb 02,2026
# ** Note: (vsim-3812) Design is being optimized...
# ** Warning: dma_sequence.sv(248): (vopt-2240) Treating stand-alone use of function 'predict' as an implicit VOID cast.
# ** Warning: dma_sequence.sv(411): (vopt-2240) Treating stand-alone use of function 'predict' as an implicit VOID cast.
# //  Questa Sim
# //  Version 10.6c linux Jul 25 2017
# //
# //  Copyright 1991-2017 Mentor Graphics Corporation
# //  All Rights Reserved.
# //
# //  QuestaSim and its associated documentation contain trade
# //  secrets and commercial or financial information that are the property of
# //  Mentor Graphics Corporation and are privileged, confidential,
# //  and exempt from disclosure under the Freedom of Information Act,
# //  5 U.S.C. Section 552. Furthermore, this information
# //  is prohibited from disclosure under the Trade Secrets Act,
# //  18 U.S.C. Section 1905.
# //
# Loading sv_std.std
# Loading work.dma_intf(fast)
# Loading mtiUvm.uvm_pkg
# Loading work.dma_pkg(fast)
# Loading work.top_sv_unit(fast)
# Loading work.tb(fast)
# Loading work.dma_intf(fast)
# Loading work.dma_design(fast)
# Loading mtiUvm.questa_uvm_pkg(fast)
# Loading /tools/mentor/questasim_10.6c/questasim/uvm-1.1d/linux/uvm_dpi.so
# coverage save -onexit -assert -directive -cvg -codeAll dma_coverage.ucdb
#  run -all
# ----------------------------------------------------------------
# UVM-1.1d
# (C) 2007-2013 Mentor Graphics Corporation
# (C) 2007-2013 Cadence Design Systems, Inc.
# (C) 2006-2013 Synopsys, Inc.
# (C) 2011-2013 Cypress Semiconductor Corp.
# ----------------------------------------------------------------
# 
#   ***********       IMPORTANT RELEASE NOTES         ************
# 
#   You are using a version of the UVM library that has been compiled
#   with `UVM_NO_DEPRECATED undefined.
#   See http://www.eda.org/svdb/view.php?id=3313 for more details.
# 
#   You are using a version of the UVM library that has been compiled
#   with `UVM_OBJECT_MUST_HAVE_CONSTRUCTOR undefined.
#   See http://www.eda.org/svdb/view.php?id=3770 for more details.
# 
#       (Specify +UVM_NO_RELNOTES to turn off this notice)
# 
# UVM_INFO verilog_src/questa_uvm_pkg-1.2/src/questa_uvm_pkg.sv(215) @ 0: reporter [Questa UVM] QUESTA_UVM-1.2.3
# UVM_INFO verilog_src/questa_uvm_pkg-1.2/src/questa_uvm_pkg.sv(217) @ 0: reporter [Questa UVM]  questa_uvm::init(+struct)
# UVM_INFO @ 0: reporter [RNTST] Running test transfer_count_test...
# UVM_INFO dma_sequence.sv(210) @ 0: uvm_test_top.env.agent_inst.seqr@@seq [transfer_count_reg_sequence] --------Testing RO Register: transfer_count_inst-------
# UVM_INFO dma_sequence.sv(214) @ 0: uvm_test_top.env.agent_inst.seqr@@seq [transfer_count_reg_sequence] Writing to transfer_count_inst via FRONTDOOR: 0x1def0 (simulating HW update)
# UVM_INFO dma_driver.sv(35) @ 15: uvm_test_top.env.agent_inst.drv [dma_driver] addr = 1048, wdata = 122608,wr_en = 1, rd_en = 0 
# UVM_INFO dma_monitor.sv(29) @ 25: uvm_test_top.env.agent_inst.mon [dma_monitor] addr = 1048, wdata = 122608,wr_en = 1, rd_en = 0, rdata = 0 
# UVM_INFO dma_sequence.sv(220) @ 45: uvm_test_top.env.agent_inst.seqr@@seq [transfer_count_reg_sequence] transfer_count_inst after FRONTDOOR WRITE - Desired: 0x0, Mirrored: 0x0
# UVM_INFO dma_sequence.sv(224) @ 45: uvm_test_top.env.agent_inst.seqr@@seq [transfer_count_reg_sequence] Reading to transfer_count_inst via FRONTDOOR using read method
# UVM_INFO dma_driver.sv(35) @ 55: uvm_test_top.env.agent_inst.drv [dma_driver] addr = 1048, wdata = x,wr_en = 0, rd_en = 1 
# UVM_INFO dma_monitor.sv(29) @ 65: uvm_test_top.env.agent_inst.mon [dma_monitor] addr = 1048, wdata = 122608,wr_en = 0, rd_en = 1, rdata = 0 
# UVM_INFO dma_sequence.sv(230) @ 85: uvm_test_top.env.agent_inst.seqr@@seq [transfer_count_reg_sequence] transfer_count_inst after FRONTDOOR READ - Desired: 0x0, Mirrored: 0x0
# UVM_INFO dma_sequence.sv(232) @ 85: uvm_test_top.env.agent_inst.seqr@@seq [transfer_count_reg_sequence] Writing to transfer_count_inst via BACKDOOR (RO access)
# UVM_INFO dma_sequence.sv(238) @ 85: uvm_test_top.env.agent_inst.seqr@@seq [transfer_count_reg_sequence] transfer_count_inst after POKE (BD) - Desired: 0x1def0, Mirrored: 0x1def0, ReadData: 0x0
# UVM_INFO dma_sequence.sv(247) @ 85: uvm_test_top.env.agent_inst.seqr@@seq [transfer_count_reg_sequence] Predicting the value of transfer_count_inst using predict method
# UVM_INFO dma_sequence.sv(253) @ 85: uvm_test_top.env.agent_inst.seqr@@seq [transfer_count_reg_sequence] transfer_count_inst after predicting - Desired: 0x1def0, Mirrored: 0x1def0
# UVM_INFO dma_driver.sv(35) @ 95: uvm_test_top.env.agent_inst.drv [dma_driver] addr = 1048, wdata = x,wr_en = 0, rd_en = 1 
# UVM_INFO dma_monitor.sv(29) @ 105: uvm_test_top.env.agent_inst.mon [dma_monitor] addr = 1048, wdata = 122608,wr_en = 0, rd_en = 1, rdata = 122608 
# UVM_INFO dma_sequence.sv(264) @ 125: uvm_test_top.env.agent_inst.seqr@@seq [transfer_count_reg_sequence] transfer_count_inst Mirror verification passed (RO)
# UVM_INFO dma_sequence.sv(266) @ 125: uvm_test_top.env.agent_inst.seqr@@seq [transfer_count_reg_sequence] -------transfer_count_inst RO Test Complete -------
# UVM_INFO dma_sequence.sv(210) @ 125: uvm_test_top.env.agent_inst.seqr@@seq [transfer_count_reg_sequence] --------Testing RO Register: transfer_count_inst-------
# UVM_INFO dma_sequence.sv(214) @ 125: uvm_test_top.env.agent_inst.seqr@@seq [transfer_count_reg_sequence] Writing to transfer_count_inst via FRONTDOOR: 0x12153524 (simulating HW update)
# UVM_INFO dma_driver.sv(35) @ 135: uvm_test_top.env.agent_inst.drv [dma_driver] addr = 1048, wdata = 303379748,wr_en = 1, rd_en = 0 
# UVM_INFO dma_monitor.sv(29) @ 145: uvm_test_top.env.agent_inst.mon [dma_monitor] addr = 1048, wdata = 303379748,wr_en = 1, rd_en = 0, rdata = 122608 
# UVM_INFO dma_sequence.sv(220) @ 165: uvm_test_top.env.agent_inst.seqr@@seq [transfer_count_reg_sequence] transfer_count_inst after FRONTDOOR WRITE - Desired: 0x1def0, Mirrored: 0x1def0
# UVM_INFO dma_sequence.sv(224) @ 165: uvm_test_top.env.agent_inst.seqr@@seq [transfer_count_reg_sequence] Reading to transfer_count_inst via FRONTDOOR using read method
# UVM_INFO dma_driver.sv(35) @ 175: uvm_test_top.env.agent_inst.drv [dma_driver] addr = 1048, wdata = x,wr_en = 0, rd_en = 1 
# UVM_INFO dma_monitor.sv(29) @ 185: uvm_test_top.env.agent_inst.mon [dma_monitor] addr = 1048, wdata = 303379748,wr_en = 0, rd_en = 1, rdata = 122608 
# UVM_INFO dma_sequence.sv(230) @ 205: uvm_test_top.env.agent_inst.seqr@@seq [transfer_count_reg_sequence] transfer_count_inst after FRONTDOOR READ - Desired: 0x1def0, Mirrored: 0x1def0
# UVM_INFO dma_sequence.sv(232) @ 205: uvm_test_top.env.agent_inst.seqr@@seq [transfer_count_reg_sequence] Writing to transfer_count_inst via BACKDOOR (RO access)
# UVM_INFO dma_sequence.sv(238) @ 205: uvm_test_top.env.agent_inst.seqr@@seq [transfer_count_reg_sequence] transfer_count_inst after POKE (BD) - Desired: 0x12153524, Mirrored: 0x12153524, ReadData: 0x1def0
# UVM_INFO dma_sequence.sv(247) @ 205: uvm_test_top.env.agent_inst.seqr@@seq [transfer_count_reg_sequence] Predicting the value of transfer_count_inst using predict method
# UVM_INFO dma_sequence.sv(253) @ 205: uvm_test_top.env.agent_inst.seqr@@seq [transfer_count_reg_sequence] transfer_count_inst after predicting - Desired: 0x12153524, Mirrored: 0x12153524
# UVM_INFO dma_driver.sv(35) @ 215: uvm_test_top.env.agent_inst.drv [dma_driver] addr = 1048, wdata = x,wr_en = 0, rd_en = 1 
# UVM_INFO dma_monitor.sv(29) @ 225: uvm_test_top.env.agent_inst.mon [dma_monitor] addr = 1048, wdata = 303379748,wr_en = 0, rd_en = 1, rdata = 303379748 
# UVM_INFO dma_sequence.sv(264) @ 245: uvm_test_top.env.agent_inst.seqr@@seq [transfer_count_reg_sequence] transfer_count_inst Mirror verification passed (RO)
# UVM_INFO dma_sequence.sv(266) @ 245: uvm_test_top.env.agent_inst.seqr@@seq [transfer_count_reg_sequence] -------transfer_count_inst RO Test Complete -------
# UVM_INFO dma_sequence.sv(210) @ 245: uvm_test_top.env.agent_inst.seqr@@seq [transfer_count_reg_sequence] --------Testing RO Register: transfer_count_inst-------
# UVM_INFO dma_sequence.sv(214) @ 245: uvm_test_top.env.agent_inst.seqr@@seq [transfer_count_reg_sequence] Writing to transfer_count_inst via FRONTDOOR: 0xc0895e81 (simulating HW update)
# UVM_INFO dma_driver.sv(35) @ 255: uvm_test_top.env.agent_inst.drv [dma_driver] addr = 1048, wdata = 3230228097,wr_en = 1, rd_en = 0 
# UVM_INFO dma_monitor.sv(29) @ 265: uvm_test_top.env.agent_inst.mon [dma_monitor] addr = 1048, wdata = 3230228097,wr_en = 1, rd_en = 0, rdata = 303379748 
# UVM_INFO dma_sequence.sv(220) @ 285: uvm_test_top.env.agent_inst.seqr@@seq [transfer_count_reg_sequence] transfer_count_inst after FRONTDOOR WRITE - Desired: 0x12153524, Mirrored: 0x12153524
# UVM_INFO dma_sequence.sv(224) @ 285: uvm_test_top.env.agent_inst.seqr@@seq [transfer_count_reg_sequence] Reading to transfer_count_inst via FRONTDOOR using read method
# UVM_INFO dma_driver.sv(35) @ 295: uvm_test_top.env.agent_inst.drv [dma_driver] addr = 1048, wdata = x,wr_en = 0, rd_en = 1 
# UVM_INFO dma_monitor.sv(29) @ 305: uvm_test_top.env.agent_inst.mon [dma_monitor] addr = 1048, wdata = 3230228097,wr_en = 0, rd_en = 1, rdata = 303379748 
# UVM_INFO dma_sequence.sv(230) @ 325: uvm_test_top.env.agent_inst.seqr@@seq [transfer_count_reg_sequence] transfer_count_inst after FRONTDOOR READ - Desired: 0x12153524, Mirrored: 0x12153524
# UVM_INFO dma_sequence.sv(232) @ 325: uvm_test_top.env.agent_inst.seqr@@seq [transfer_count_reg_sequence] Writing to transfer_count_inst via BACKDOOR (RO access)
# UVM_INFO dma_sequence.sv(238) @ 325: uvm_test_top.env.agent_inst.seqr@@seq [transfer_count_reg_sequence] transfer_count_inst after POKE (BD) - Desired: 0xc0895e81, Mirrored: 0xc0895e81, ReadData: 0x12153524
# UVM_INFO dma_sequence.sv(247) @ 325: uvm_test_top.env.agent_inst.seqr@@seq [transfer_count_reg_sequence] Predicting the value of transfer_count_inst using predict method
# UVM_INFO dma_sequence.sv(253) @ 325: uvm_test_top.env.agent_inst.seqr@@seq [transfer_count_reg_sequence] transfer_count_inst after predicting - Desired: 0xc0895e81, Mirrored: 0xc0895e81
# UVM_INFO dma_driver.sv(35) @ 335: uvm_test_top.env.agent_inst.drv [dma_driver] addr = 1048, wdata = x,wr_en = 0, rd_en = 1 
# UVM_INFO dma_monitor.sv(29) @ 345: uvm_test_top.env.agent_inst.mon [dma_monitor] addr = 1048, wdata = 3230228097,wr_en = 0, rd_en = 1, rdata = 3230228097 
# UVM_INFO dma_sequence.sv(264) @ 365: uvm_test_top.env.agent_inst.seqr@@seq [transfer_count_reg_sequence] transfer_count_inst Mirror verification passed (RO)
# UVM_INFO dma_sequence.sv(266) @ 365: uvm_test_top.env.agent_inst.seqr@@seq [transfer_count_reg_sequence] -------transfer_count_inst RO Test Complete -------
# UVM_INFO dma_sequence.sv(210) @ 365: uvm_test_top.env.agent_inst.seqr@@seq [transfer_count_reg_sequence] --------Testing RO Register: transfer_count_inst-------
# UVM_INFO dma_sequence.sv(214) @ 365: uvm_test_top.env.agent_inst.seqr@@seq [transfer_count_reg_sequence] Writing to transfer_count_inst via FRONTDOOR: 0x8484d609 (simulating HW update)
# UVM_INFO dma_driver.sv(35) @ 375: uvm_test_top.env.agent_inst.drv [dma_driver] addr = 1048, wdata = 2223298057,wr_en = 1, rd_en = 0 
# UVM_INFO dma_monitor.sv(29) @ 385: uvm_test_top.env.agent_inst.mon [dma_monitor] addr = 1048, wdata = 2223298057,wr_en = 1, rd_en = 0, rdata = 3230228097 
# UVM_INFO dma_sequence.sv(220) @ 405: uvm_test_top.env.agent_inst.seqr@@seq [transfer_count_reg_sequence] transfer_count_inst after FRONTDOOR WRITE - Desired: 0xc0895e81, Mirrored: 0xc0895e81
# UVM_INFO dma_sequence.sv(224) @ 405: uvm_test_top.env.agent_inst.seqr@@seq [transfer_count_reg_sequence] Reading to transfer_count_inst via FRONTDOOR using read method
# UVM_INFO dma_driver.sv(35) @ 415: uvm_test_top.env.agent_inst.drv [dma_driver] addr = 1048, wdata = x,wr_en = 0, rd_en = 1 
# UVM_INFO dma_monitor.sv(29) @ 425: uvm_test_top.env.agent_inst.mon [dma_monitor] addr = 1048, wdata = 2223298057,wr_en = 0, rd_en = 1, rdata = 3230228097 
# UVM_INFO dma_sequence.sv(230) @ 445: uvm_test_top.env.agent_inst.seqr@@seq [transfer_count_reg_sequence] transfer_count_inst after FRONTDOOR READ - Desired: 0xc0895e81, Mirrored: 0xc0895e81
# UVM_INFO dma_sequence.sv(232) @ 445: uvm_test_top.env.agent_inst.seqr@@seq [transfer_count_reg_sequence] Writing to transfer_count_inst via BACKDOOR (RO access)
# UVM_INFO dma_sequence.sv(238) @ 445: uvm_test_top.env.agent_inst.seqr@@seq [transfer_count_reg_sequence] transfer_count_inst after POKE (BD) - Desired: 0x8484d609, Mirrored: 0x8484d609, ReadData: 0xc0895e81
# UVM_INFO dma_sequence.sv(247) @ 445: uvm_test_top.env.agent_inst.seqr@@seq [transfer_count_reg_sequence] Predicting the value of transfer_count_inst using predict method
# UVM_INFO dma_sequence.sv(253) @ 445: uvm_test_top.env.agent_inst.seqr@@seq [transfer_count_reg_sequence] transfer_count_inst after predicting - Desired: 0x8484d609, Mirrored: 0x8484d609
# UVM_INFO dma_driver.sv(35) @ 455: uvm_test_top.env.agent_inst.drv [dma_driver] addr = 1048, wdata = x,wr_en = 0, rd_en = 1 
# UVM_INFO dma_monitor.sv(29) @ 465: uvm_test_top.env.agent_inst.mon [dma_monitor] addr = 1048, wdata = 2223298057,wr_en = 0, rd_en = 1, rdata = 2223298057 
# UVM_INFO dma_sequence.sv(264) @ 485: uvm_test_top.env.agent_inst.seqr@@seq [transfer_count_reg_sequence] transfer_count_inst Mirror verification passed (RO)
# UVM_INFO dma_sequence.sv(266) @ 485: uvm_test_top.env.agent_inst.seqr@@seq [transfer_count_reg_sequence] -------transfer_count_inst RO Test Complete -------
# UVM_INFO dma_sequence.sv(210) @ 485: uvm_test_top.env.agent_inst.seqr@@seq [transfer_count_reg_sequence] --------Testing RO Register: transfer_count_inst-------
# UVM_INFO dma_sequence.sv(214) @ 485: uvm_test_top.env.agent_inst.seqr@@seq [transfer_count_reg_sequence] Writing to transfer_count_inst via FRONTDOOR: 0xb1f05663 (simulating HW update)
# UVM_INFO dma_driver.sv(35) @ 495: uvm_test_top.env.agent_inst.drv [dma_driver] addr = 1048, wdata = 2985317987,wr_en = 1, rd_en = 0 
# UVM_INFO dma_monitor.sv(29) @ 505: uvm_test_top.env.agent_inst.mon [dma_monitor] addr = 1048, wdata = 2985317987,wr_en = 1, rd_en = 0, rdata = 2223298057 
# UVM_INFO dma_sequence.sv(220) @ 525: uvm_test_top.env.agent_inst.seqr@@seq [transfer_count_reg_sequence] transfer_count_inst after FRONTDOOR WRITE - Desired: 0x8484d609, Mirrored: 0x8484d609
# UVM_INFO dma_sequence.sv(224) @ 525: uvm_test_top.env.agent_inst.seqr@@seq [transfer_count_reg_sequence] Reading to transfer_count_inst via FRONTDOOR using read method
# UVM_INFO dma_driver.sv(35) @ 535: uvm_test_top.env.agent_inst.drv [dma_driver] addr = 1048, wdata = x,wr_en = 0, rd_en = 1 
# UVM_INFO dma_monitor.sv(29) @ 545: uvm_test_top.env.agent_inst.mon [dma_monitor] addr = 1048, wdata = 2985317987,wr_en = 0, rd_en = 1, rdata = 2223298057 
# UVM_INFO dma_sequence.sv(230) @ 565: uvm_test_top.env.agent_inst.seqr@@seq [transfer_count_reg_sequence] transfer_count_inst after FRONTDOOR READ - Desired: 0x8484d609, Mirrored: 0x8484d609
# UVM_INFO dma_sequence.sv(232) @ 565: uvm_test_top.env.agent_inst.seqr@@seq [transfer_count_reg_sequence] Writing to transfer_count_inst via BACKDOOR (RO access)
# UVM_INFO dma_sequence.sv(238) @ 565: uvm_test_top.env.agent_inst.seqr@@seq [transfer_count_reg_sequence] transfer_count_inst after POKE (BD) - Desired: 0xb1f05663, Mirrored: 0xb1f05663, ReadData: 0x8484d609
# UVM_INFO dma_sequence.sv(247) @ 565: uvm_test_top.env.agent_inst.seqr@@seq [transfer_count_reg_sequence] Predicting the value of transfer_count_inst using predict method
# UVM_INFO dma_sequence.sv(253) @ 565: uvm_test_top.env.agent_inst.seqr@@seq [transfer_count_reg_sequence] transfer_count_inst after predicting - Desired: 0xb1f05663, Mirrored: 0xb1f05663
# UVM_INFO dma_driver.sv(35) @ 575: uvm_test_top.env.agent_inst.drv [dma_driver] addr = 1048, wdata = x,wr_en = 0, rd_en = 1 
# UVM_INFO dma_monitor.sv(29) @ 585: uvm_test_top.env.agent_inst.mon [dma_monitor] addr = 1048, wdata = 2985317987,wr_en = 0, rd_en = 1, rdata = 2985317987 
# UVM_INFO dma_sequence.sv(264) @ 605: uvm_test_top.env.agent_inst.seqr@@seq [transfer_count_reg_sequence] transfer_count_inst Mirror verification passed (RO)
# UVM_INFO dma_sequence.sv(266) @ 605: uvm_test_top.env.agent_inst.seqr@@seq [transfer_count_reg_sequence] -------transfer_count_inst RO Test Complete -------
# UVM_INFO dma_sequence.sv(210) @ 605: uvm_test_top.env.agent_inst.seqr@@seq [transfer_count_reg_sequence] --------Testing RO Register: transfer_count_inst-------
# UVM_INFO dma_sequence.sv(214) @ 605: uvm_test_top.env.agent_inst.seqr@@seq [transfer_count_reg_sequence] Writing to transfer_count_inst via FRONTDOOR: 0x6b97b0d (simulating HW update)
# UVM_INFO dma_driver.sv(35) @ 615: uvm_test_top.env.agent_inst.drv [dma_driver] addr = 1048, wdata = 112818957,wr_en = 1, rd_en = 0 
# UVM_INFO dma_monitor.sv(29) @ 625: uvm_test_top.env.agent_inst.mon [dma_monitor] addr = 1048, wdata = 112818957,wr_en = 1, rd_en = 0, rdata = 2985317987 
# UVM_INFO dma_sequence.sv(220) @ 645: uvm_test_top.env.agent_inst.seqr@@seq [transfer_count_reg_sequence] transfer_count_inst after FRONTDOOR WRITE - Desired: 0xb1f05663, Mirrored: 0xb1f05663
# UVM_INFO dma_sequence.sv(224) @ 645: uvm_test_top.env.agent_inst.seqr@@seq [transfer_count_reg_sequence] Reading to transfer_count_inst via FRONTDOOR using read method
# UVM_INFO dma_driver.sv(35) @ 655: uvm_test_top.env.agent_inst.drv [dma_driver] addr = 1048, wdata = x,wr_en = 0, rd_en = 1 
# UVM_INFO dma_monitor.sv(29) @ 665: uvm_test_top.env.agent_inst.mon [dma_monitor] addr = 1048, wdata = 112818957,wr_en = 0, rd_en = 1, rdata = 2985317987 
# UVM_INFO dma_sequence.sv(230) @ 685: uvm_test_top.env.agent_inst.seqr@@seq [transfer_count_reg_sequence] transfer_count_inst after FRONTDOOR READ - Desired: 0xb1f05663, Mirrored: 0xb1f05663
# UVM_INFO dma_sequence.sv(232) @ 685: uvm_test_top.env.agent_inst.seqr@@seq [transfer_count_reg_sequence] Writing to transfer_count_inst via BACKDOOR (RO access)
# UVM_INFO dma_sequence.sv(238) @ 685: uvm_test_top.env.agent_inst.seqr@@seq [transfer_count_reg_sequence] transfer_count_inst after POKE (BD) - Desired: 0x6b97b0d, Mirrored: 0x6b97b0d, ReadData: 0xb1f05663
# UVM_INFO dma_sequence.sv(247) @ 685: uvm_test_top.env.agent_inst.seqr@@seq [transfer_count_reg_sequence] Predicting the value of transfer_count_inst using predict method
# UVM_INFO dma_sequence.sv(253) @ 685: uvm_test_top.env.agent_inst.seqr@@seq [transfer_count_reg_sequence] transfer_count_inst after predicting - Desired: 0x6b97b0d, Mirrored: 0x6b97b0d
# UVM_INFO dma_driver.sv(35) @ 695: uvm_test_top.env.agent_inst.drv [dma_driver] addr = 1048, wdata = x,wr_en = 0, rd_en = 1 
# UVM_INFO dma_monitor.sv(29) @ 705: uvm_test_top.env.agent_inst.mon [dma_monitor] addr = 1048, wdata = 112818957,wr_en = 0, rd_en = 1, rdata = 112818957 
# UVM_INFO dma_sequence.sv(264) @ 725: uvm_test_top.env.agent_inst.seqr@@seq [transfer_count_reg_sequence] transfer_count_inst Mirror verification passed (RO)
# UVM_INFO dma_sequence.sv(266) @ 725: uvm_test_top.env.agent_inst.seqr@@seq [transfer_count_reg_sequence] -------transfer_count_inst RO Test Complete -------
# UVM_INFO dma_sequence.sv(210) @ 725: uvm_test_top.env.agent_inst.seqr@@seq [transfer_count_reg_sequence] --------Testing RO Register: transfer_count_inst-------
# UVM_INFO dma_sequence.sv(214) @ 725: uvm_test_top.env.agent_inst.seqr@@seq [transfer_count_reg_sequence] Writing to transfer_count_inst via FRONTDOOR: 0x46df998d (simulating HW update)
# UVM_INFO dma_driver.sv(35) @ 735: uvm_test_top.env.agent_inst.drv [dma_driver] addr = 1048, wdata = 1189058957,wr_en = 1, rd_en = 0 
# UVM_INFO dma_monitor.sv(29) @ 745: uvm_test_top.env.agent_inst.mon [dma_monitor] addr = 1048, wdata = 1189058957,wr_en = 1, rd_en = 0, rdata = 112818957 
# UVM_INFO dma_sequence.sv(220) @ 765: uvm_test_top.env.agent_inst.seqr@@seq [transfer_count_reg_sequence] transfer_count_inst after FRONTDOOR WRITE - Desired: 0x6b97b0d, Mirrored: 0x6b97b0d
# UVM_INFO dma_sequence.sv(224) @ 765: uvm_test_top.env.agent_inst.seqr@@seq [transfer_count_reg_sequence] Reading to transfer_count_inst via FRONTDOOR using read method
# UVM_INFO dma_driver.sv(35) @ 775: uvm_test_top.env.agent_inst.drv [dma_driver] addr = 1048, wdata = x,wr_en = 0, rd_en = 1 
# UVM_INFO dma_monitor.sv(29) @ 785: uvm_test_top.env.agent_inst.mon [dma_monitor] addr = 1048, wdata = 1189058957,wr_en = 0, rd_en = 1, rdata = 112818957 
# UVM_INFO dma_sequence.sv(230) @ 805: uvm_test_top.env.agent_inst.seqr@@seq [transfer_count_reg_sequence] transfer_count_inst after FRONTDOOR READ - Desired: 0x6b97b0d, Mirrored: 0x6b97b0d
# UVM_INFO dma_sequence.sv(232) @ 805: uvm_test_top.env.agent_inst.seqr@@seq [transfer_count_reg_sequence] Writing to transfer_count_inst via BACKDOOR (RO access)
# UVM_INFO dma_sequence.sv(238) @ 805: uvm_test_top.env.agent_inst.seqr@@seq [transfer_count_reg_sequence] transfer_count_inst after POKE (BD) - Desired: 0x46df998d, Mirrored: 0x46df998d, ReadData: 0x6b97b0d
# UVM_INFO dma_sequence.sv(247) @ 805: uvm_test_top.env.agent_inst.seqr@@seq [transfer_count_reg_sequence] Predicting the value of transfer_count_inst using predict method
# UVM_INFO dma_sequence.sv(253) @ 805: uvm_test_top.env.agent_inst.seqr@@seq [transfer_count_reg_sequence] transfer_count_inst after predicting - Desired: 0x46df998d, Mirrored: 0x46df998d
# UVM_INFO dma_driver.sv(35) @ 815: uvm_test_top.env.agent_inst.drv [dma_driver] addr = 1048, wdata = x,wr_en = 0, rd_en = 1 
# UVM_INFO dma_monitor.sv(29) @ 825: uvm_test_top.env.agent_inst.mon [dma_monitor] addr = 1048, wdata = 1189058957,wr_en = 0, rd_en = 1, rdata = 1189058957 
# UVM_INFO dma_sequence.sv(264) @ 845: uvm_test_top.env.agent_inst.seqr@@seq [transfer_count_reg_sequence] transfer_count_inst Mirror verification passed (RO)
# UVM_INFO dma_sequence.sv(266) @ 845: uvm_test_top.env.agent_inst.seqr@@seq [transfer_count_reg_sequence] -------transfer_count_inst RO Test Complete -------
# UVM_INFO dma_sequence.sv(210) @ 845: uvm_test_top.env.agent_inst.seqr@@seq [transfer_count_reg_sequence] --------Testing RO Register: transfer_count_inst-------
# UVM_INFO dma_sequence.sv(214) @ 845: uvm_test_top.env.agent_inst.seqr@@seq [transfer_count_reg_sequence] Writing to transfer_count_inst via FRONTDOOR: 0xb2c28465 (simulating HW update)
# UVM_INFO dma_driver.sv(35) @ 855: uvm_test_top.env.agent_inst.drv [dma_driver] addr = 1048, wdata = 2999092325,wr_en = 1, rd_en = 0 
# UVM_INFO dma_monitor.sv(29) @ 865: uvm_test_top.env.agent_inst.mon [dma_monitor] addr = 1048, wdata = 2999092325,wr_en = 1, rd_en = 0, rdata = 1189058957 
# UVM_INFO dma_sequence.sv(220) @ 885: uvm_test_top.env.agent_inst.seqr@@seq [transfer_count_reg_sequence] transfer_count_inst after FRONTDOOR WRITE - Desired: 0x46df998d, Mirrored: 0x46df998d
# UVM_INFO dma_sequence.sv(224) @ 885: uvm_test_top.env.agent_inst.seqr@@seq [transfer_count_reg_sequence] Reading to transfer_count_inst via FRONTDOOR using read method
# UVM_INFO dma_driver.sv(35) @ 895: uvm_test_top.env.agent_inst.drv [dma_driver] addr = 1048, wdata = x,wr_en = 0, rd_en = 1 
# UVM_INFO dma_monitor.sv(29) @ 905: uvm_test_top.env.agent_inst.mon [dma_monitor] addr = 1048, wdata = 2999092325,wr_en = 0, rd_en = 1, rdata = 1189058957 
# UVM_INFO dma_sequence.sv(230) @ 925: uvm_test_top.env.agent_inst.seqr@@seq [transfer_count_reg_sequence] transfer_count_inst after FRONTDOOR READ - Desired: 0x46df998d, Mirrored: 0x46df998d
# UVM_INFO dma_sequence.sv(232) @ 925: uvm_test_top.env.agent_inst.seqr@@seq [transfer_count_reg_sequence] Writing to transfer_count_inst via BACKDOOR (RO access)
# UVM_INFO dma_sequence.sv(238) @ 925: uvm_test_top.env.agent_inst.seqr@@seq [transfer_count_reg_sequence] transfer_count_inst after POKE (BD) - Desired: 0xb2c28465, Mirrored: 0xb2c28465, ReadData: 0x46df998d
# UVM_INFO dma_sequence.sv(247) @ 925: uvm_test_top.env.agent_inst.seqr@@seq [transfer_count_reg_sequence] Predicting the value of transfer_count_inst using predict method
# UVM_INFO dma_sequence.sv(253) @ 925: uvm_test_top.env.agent_inst.seqr@@seq [transfer_count_reg_sequence] transfer_count_inst after predicting - Desired: 0xb2c28465, Mirrored: 0xb2c28465
# UVM_INFO dma_driver.sv(35) @ 935: uvm_test_top.env.agent_inst.drv [dma_driver] addr = 1048, wdata = x,wr_en = 0, rd_en = 1 
# UVM_INFO dma_monitor.sv(29) @ 945: uvm_test_top.env.agent_inst.mon [dma_monitor] addr = 1048, wdata = 2999092325,wr_en = 0, rd_en = 1, rdata = 2999092325 
# UVM_INFO dma_sequence.sv(264) @ 965: uvm_test_top.env.agent_inst.seqr@@seq [transfer_count_reg_sequence] transfer_count_inst Mirror verification passed (RO)
# UVM_INFO dma_sequence.sv(266) @ 965: uvm_test_top.env.agent_inst.seqr@@seq [transfer_count_reg_sequence] -------transfer_count_inst RO Test Complete -------
# UVM_INFO dma_sequence.sv(210) @ 965: uvm_test_top.env.agent_inst.seqr@@seq [transfer_count_reg_sequence] --------Testing RO Register: transfer_count_inst-------
# UVM_INFO dma_sequence.sv(214) @ 965: uvm_test_top.env.agent_inst.seqr@@seq [transfer_count_reg_sequence] Writing to transfer_count_inst via FRONTDOOR: 0x89375212 (simulating HW update)
# UVM_INFO dma_driver.sv(35) @ 975: uvm_test_top.env.agent_inst.drv [dma_driver] addr = 1048, wdata = 2302104082,wr_en = 1, rd_en = 0 
# UVM_INFO dma_monitor.sv(29) @ 985: uvm_test_top.env.agent_inst.mon [dma_monitor] addr = 1048, wdata = 2302104082,wr_en = 1, rd_en = 0, rdata = 2999092325 
# UVM_INFO dma_sequence.sv(220) @ 1005: uvm_test_top.env.agent_inst.seqr@@seq [transfer_count_reg_sequence] transfer_count_inst after FRONTDOOR WRITE - Desired: 0xb2c28465, Mirrored: 0xb2c28465
# UVM_INFO dma_sequence.sv(224) @ 1005: uvm_test_top.env.agent_inst.seqr@@seq [transfer_count_reg_sequence] Reading to transfer_count_inst via FRONTDOOR using read method
# UVM_INFO dma_driver.sv(35) @ 1015: uvm_test_top.env.agent_inst.drv [dma_driver] addr = 1048, wdata = x,wr_en = 0, rd_en = 1 
# UVM_INFO dma_monitor.sv(29) @ 1025: uvm_test_top.env.agent_inst.mon [dma_monitor] addr = 1048, wdata = 2302104082,wr_en = 0, rd_en = 1, rdata = 2999092325 
# UVM_INFO dma_sequence.sv(230) @ 1045: uvm_test_top.env.agent_inst.seqr@@seq [transfer_count_reg_sequence] transfer_count_inst after FRONTDOOR READ - Desired: 0xb2c28465, Mirrored: 0xb2c28465
# UVM_INFO dma_sequence.sv(232) @ 1045: uvm_test_top.env.agent_inst.seqr@@seq [transfer_count_reg_sequence] Writing to transfer_count_inst via BACKDOOR (RO access)
# UVM_INFO dma_sequence.sv(238) @ 1045: uvm_test_top.env.agent_inst.seqr@@seq [transfer_count_reg_sequence] transfer_count_inst after POKE (BD) - Desired: 0x89375212, Mirrored: 0x89375212, ReadData: 0xb2c28465
